2012-2/TPs/ED_06/461971-06/Exemplo0046.vcd
$date
	Wed Oct 17 17:45:41 2012
$end
$version
	Icarus Verilog
$end
$timescale
	1s
$end
$scope module Exemplo0046 $end
$var wire 1 ! clk $end
$var wire 1 " p1 $end
$scope module CLK1 $end
$var reg 1 # clk $end
$upscope $end
$scope module pulse1 $end
$var wire 1 ! clock $end
$var reg 1 $ signal $end
$upscope $end
$upscope $end
$enddefinitions $end
#0
$dumpvars
x$
0#
x"
0!
$end
#12
1$
1"
1#
1!
#17
0$
0"
#24
0#
0!
#36
1$
1"
1#
1!
#41
0$
0"
#48
0#
0!
#60
1$
1"
1#
1!
#65
0$
0"
#72
0#
0!
#84
1$
1"
1#
1!
#89
0$
0"
#96
0#
0!
#108
1$
1"
1#
1!
#113
0$
0"
#120
0#
0!
#132
1$
1"
1#
1!
#137
0$
0"
#144
0#
0!
#156
1$
1"
1#
1!
#161
0$
0"
#168
0#
0!
#180
1$
1"
1#
1!
#185
0$
0"
#192
0#
0!
#204
1$
1"
1#
1!
#209
0$
0"
#216
0#
0!
#228
1$
1"
1#
1!
#233
0$
0"
#240
0#
0!
#252
1$
1"
1#
1!
#257
0$
0"
#264
0#
0!
#276
1$
1"
1#
1!
#281
0$
0"
#288
0#
0!
#300
1$
1"
1#
1!
#305
0$
0"
#312
0#
0!
#324
1$
1"
1#
1!
#329
0$
0"
#336
0#
0!
#348
1$
1"
1#
1!
#353
0$
0"
#360
0#
0!
#372
1$
1"
1#
1!
#377
0$
0"
#384
0#
0!
#396
1$
1"
1#
1!
#401
0$
0"
#408
0#
0!
#420
1$
1"
1#
1!
#425
0$
0"
#432
0#
0!
#444
1$
1"
1#
1!
#449
0$
0"
#456
0#
0!
#468
1$
1"
1#
1!
#473
0$
0"
#480
0#
0!
#492
1$
1"
1#
1!
#497
0$
0"
#504
0#
0!
#516
1$
1"
1#
1!
#521
0$
0"
#528
0#
0!
#540
1$
1"
1#
1!
#545
0$
0"
#552
0#
0!
#564
1$
1"
1#
1!
#569
0$
0"
#576
0#
0!
#588
1$
1"
1#
1!
#593
0$
0"
#600
0#
0!
#612
1$
1"
1#
1!
#617
0$
0"
#624
0#
0!
#636
1$
1"
1#
1!
#641
0$
0"
#648
0#
0!
#660
1$
1"
1#
1!
#665
0$
0"
#672
0#
0!
#684
1$
1"
1#
1!
#689
0$
0"
#696
0#
0!
#708
1$
1"
1#
1!
#713
0$
0"
#720
0#
0!
#732
1$
1"
1#
1!
#737
0$
0"
#744
0#
0!
#756
1$
1"
1#
1!
#761
0$
0"
#768
0#
0!
#780
1$
1"
1#
1!
#785
0$
0"
#792
0#
0!
#804
1$
1"
1#
1!
#809
0$
0"
#816
0#
0!
#828
1$
1"
1#
1!
#833
0$
0"
#840
0#
0!
#852
1$
1"
1#
1!
#857
0$
0"
#864
0#
0!
#876
1$
1"
1#
1!
#881
0$
0"
#888
0#
0!
#900
1$
1"
1#
1!
#905
0$
0"
#912
0#
0!
#924
1$
1"
1#
1!
#929
0$
0"
#936
0#
0!
#948
1$
1"
1#
1!
#953
0$
0"
#960
0#
0!
#972
1$
1"
1#
1!
#977
0$
0"
#984
0#
0!
#996
1$
1"
1#
1!
#1001
0$
0"
#1008
0#
0!
#1020
1$
1"
1#
1!
#1025
0$
0"
#1032
0#
0!
#1044
1$
1"
1#
1!
#1049
0$
0"
#1056
0#
0!
#1068
1$
1"
1#
1!
#1073
0$
0"
#1080
0#
0!
#1092
1$
1"
1#
1!
#1097
0$
0"
#1104
0#
0!
#1116
1$
1"
1#
1!
#1121
0$
0"
#1128
0#
0!
#1140
1$
1"
1#
1!
#1145
0$
0"
#1152
0#
0!
#1164
1$
1"
1#
1!
#1169
0$
0"
#1176
0#
0!
#1188
1$
1"
1#
1!
#1193
0$
0"
