2012-2/TPs/ED_05/ED5/441694/441694 - Guia06/Exemplo0047.vcd
$date
	Tue Sep 11 16:04:50 2012
$end
$version
	Icarus Verilog
$end
$timescale
	1s
$end
$scope module Exemplo0047 $end
$var wire 1 ! clock $end
$upscope $end
$scope module Exemplo0047 $end
$var wire 1 " p1 $end
$upscope $end
$enddefinitions $end
#0
$dumpvars
x"
0!
$end
#12
1!
#24
1"
0!
#29
0"
#36
1!
#48
1"
0!
#53
0"
#60
1!
#72
1"
0!
#77
0"
#84
1!
#96
1"
0!
#101
0"
#108
1!
#120
1"
0!
