2012-2/TPs/ED_05/ED5/441694/441694 - Guia06/Exemplo0045.vcd
$date
	Tue Sep 11 16:04:44 2012
$end
$version
	Icarus Verilog
$end
$timescale
	1s
$end
$scope module Exemplo0045 $end
$var wire 1 ! clock $end
$upscope $end
$scope module Exemplo0045 $end
$var wire 1 " p1 $end
$upscope $end
$enddefinitions $end
#0
$dumpvars
1"
0!
$end
#6
0"
#12
1"
1!
#18
0"
#24
1"
0!
#30
0"
#36
1"
1!
#42
0"
#48
1"
0!
#54
0"
#60
1"
1!
#66
0"
#72
1"
0!
#78
0"
#84
1"
1!
#90
0"
#96
1"
0!
#102
0"
#108
1"
1!
#114
0"
#120
1"
0!
