2011-2/TPs/Guia_06/10-25/427424/Exemplo0045.vcd
$date
	Tue Oct 25 15:32:35 2011
$end
$version
	Icarus Verilog
$end
$timescale
	1s
$end
$scope module Exemplo0045 $end
$var wire 1 ! clock $end
$upscope $end
$scope module Exemplo0045 $end
$var wire 1 " p1 $end
$upscope $end
$scope module Exemplo0045 $end
$var reg 1 # p $end
$upscope $end
$enddefinitions $end
#0
$dumpvars
0#
1"
0!
$end
#4
0"
#8
1"
#12
0"
1!
#24
1"
0!
#28
0"
#32
1"
#36
0"
1!
#48
1"
0!
#52
0"
#56
1"
#60
0"
1!
#72
1"
0!
#76
0"
#80
1"
#84
0"
1!
#96
1"
0!
#100
0"
#104
1"
#108
0"
1!
#120
1"
0!
#124
0"
#128
1"
#132
0"
1!
#144
1"
0!
#148
0"
#152
1"
#156
0"
1!
#168
1"
0!
#172
0"
#176
1"
#180
0"
1!
#192
1"
0!
#196
0"
#200
1"
#204
0"
1!
#216
1"
0!
#220
0"
#224
1"
#228
0"
1!
#240
1"
0!
