2012-2/TPs/ED_05/ED5/448662/448862/Exemplo0048.vcd
$date
	Thu Sep 13 11:34:45 2012
$end
$version
	Icarus Verilog
$end
$timescale
	1s
$end
$scope module Exemplo0048 $end
$var wire 1 ! clock $end
$upscope $end
$scope module Exemplo0048 $end
$var wire 1 " p $end
$upscope $end
$enddefinitions $end
#0
$dumpvars
0"
0!
$end
#12
1"
1!
#24
0"
0!
#36
1"
1!
#48
0"
0!
#60
1"
1!
#72
0"
0!
#84
1"
1!
#96
0"
0!
#108
1"
1!
#120
0"
0!
