2010-2/TPs/Guia_09/10-08/407456/Exercicio04.vcd
$date
	Thu Oct 07 14:56:53 2010
$end
$version
	Icarus Verilog
$end
$timescale
	1s
$end
$scope module Exercicio04 $end
$var wire 1 ! clock $end
$upscope $end
$scope module Exercicio04 $end
$var wire 1 " r $end
$upscope $end
$enddefinitions $end
#0
$dumpvars
0"
0!
$end
#6
1!
#12
0!
#18
1!
#24
0!
#30
1!
#36
0!
#42
1!
#48
0!
#54
1!
#60
0!
1"
#66
1!
#72
0!
#78
1!
#84
0!
#90
1!
#96
0!
#102
1!
#108
0!
#114
1!
#120
0!
0"
#126
1!
#132
0!
#138
1!
#144
0!
#150
1!
#156
0!
#162
1!
#168
0!
#174
1!
#180
0!
1"
#186
1!
#192
0!
#198
1!
#204
0!
#210
1!
#216
0!
#222
1!
#228
0!
#234
1!
#240
0!
0"
#246
1!
#252
0!
#258
1!
#264
0!
#270
1!
#276
0!
#282
1!
#288
0!
#294
1!
#300
0!
1"
#306
1!
#312
0!
#318
1!
#324
0!
#330
1!
#336
0!
#342
1!
#348
0!
#354
1!
#360
0!
0"
#366
1!
#372
0!
#378
1!
#384
0!
#390
1!
#396
0!
#402
1!
#408
0!
#414
1!
#420
0!
1"
#426
1!
#432
0!
#438
1!
#444
0!
#450
1!
#456
0!
#462
1!
#468
0!
#474
1!
#480
0!
0"
#486
1!
#492
0!
#498
1!
#504
0!
#510
1!
#516
0!
#522
1!
#528
0!
#534
1!
#540
0!
1"
#546
1!
#552
0!
#558
1!
#564
0!
#570
1!
#576
0!
#582
1!
#588
0!
#594
1!
#600
0!
0"
#606
1!
#612
0!
#618
1!
#624
0!
#630
1!
#636
0!
#642
1!
#648
0!
#654
1!
#660
0!
1"
#666
1!
#672
0!
#678
1!
#684
0!
#690
1!
#696
0!
#702
1!
#708
0!
#714
1!
#720
0!
0"
#726
1!
#732
0!
#738
1!
#744
0!
#750
1!
#756
0!
#762
1!
#768
0!
#774
1!
#780
0!
1"
#786
1!
#792
0!
#798
1!
#804
0!
#810
1!
#816
0!
#822
1!
#828
0!
#834
1!
#840
0!
0"
#846
1!
#852
0!
#858
1!
#864
0!
#870
1!
#876
0!
#882
1!
#888
0!
#894
1!
#900
0!
1"
#906
1!
#912
0!
#918
1!
#924
0!
#930
1!
#936
0!
#942
1!
#948
0!
#954
1!
#960
0!
0"
#966
1!
#972
0!
#978
1!
#984
0!
#990
1!
#996
0!
#1002
1!
#1008
0!
#1014
1!
#1020
0!
1"
#1026
1!
#1032
0!
#1038
1!
#1044
0!
#1050
1!
#1056
0!
#1062
1!
#1068
0!
#1074
1!
#1080
0!
0"
#1086
1!
#1092
0!
#1098
1!
#1104
0!
#1110
1!
#1116
0!
#1122
1!
#1128
0!
#1134
1!
#1140
0!
1"
#1146
1!
#1152
0!
#1158
1!
#1164
0!
#1170
1!
#1176
0!
#1182
1!
#1188
0!
#1194
1!
#1200
0!
0"
#1206
1!
#1212
0!
#1218
1!
#1224
0!
#1230
1!
#1236
0!
#1242
1!
#1248
0!
#1254
1!
#1260
0!
1"
#1266
1!
#1272
0!
#1278
1!
#1284
0!
#1290
1!
#1296
0!
#1302
1!
#1308
0!
#1314
1!
#1320
0!
0"
#1326
1!
#1332
0!
#1338
1!
#1344
0!
#1350
1!
#1356
0!
#1362
1!
#1368
0!
#1374
1!
#1380
0!
1"
#1386
1!
#1392
0!
#1398
1!
#1404
0!
#1410
1!
#1416
0!
#1422
1!
#1428
0!
#1434
1!
#1440
0!
0"
#1446
1!
#1452
0!
#1458
1!
#1464
0!
#1470
1!
#1476
0!
#1482
1!
#1488
0!
#1494
1!
#1500
0!
1"
#1506
1!
#1512
0!
#1518
1!
#1524
0!
#1530
1!
#1536
0!
#1542
1!
#1548
0!
#1554
1!
#1560
0!
0"
#1566
1!
#1572
0!
#1578
1!
#1584
0!
#1590
1!
#1596
0!
#1602
1!
#1608
0!
#1614
1!
#1620
0!
1"
