2011-1/TPs/Guia_09/04-14/414510/testeclock_variacao_up_down.vcd
$date
	Thu Apr 14 19:50:35 2011
$end
$version
	Icarus Verilog
$end
$timescale
	1s
$end
$scope module testeclock_variacao_up_down $end
$var wire 1 ! clk $end
$upscope $end
$scope module testeclock_variacao_up_down $end
$var wire 1 " p1 $end
$upscope $end
$scope module testeclock_variacao_up_down $end
$var reg 1 # p $end
$upscope $end
$enddefinitions $end
#0
$dumpvars
0#
0"
0!
$end
#6
1"
1!
#12
0"
0!
#18
1"
1!
#24
0"
0!
#30
1"
1!
#36
0"
0!
#42
1"
1!
#48
0"
0!
#54
1"
1!
#60
0"
0!
#66
1"
1!
#72
0"
0!
#78
1"
1!
#84
0"
0!
#90
1"
1!
#96
0"
0!
#102
1"
1!
#108
0"
0!
#114
1"
1!
#120
0"
0!
