2012-2/TPs/ED_06/406087/427385-06/guia06/Exemplo0046.vcd
$date
	Fri Sep 21 17:05:12 2012
$end
$version
	Icarus Verilog
$end
$timescale
	1s
$end
$scope module Exemplo0046 $end
$var wire 1 ! clock $end
$upscope $end
$scope module Exemplo0046 $end
$var wire 1 " p1 $end
$upscope $end
$enddefinitions $end
#0
$dumpvars
x"
0!
$end
#12
1"
1!
#17
0"
#22
1"
#24
0!
#27
0"
#36
1"
1!
#41
0"
#46
1"
#48
0!
#51
0"
#60
1"
1!
#65
0"
#70
1"
#72
0!
#75
0"
#84
1"
1!
#89
0"
#94
1"
#96
0!
#99
0"
#108
1"
1!
#113
0"
#118
1"
#120
0!
#123
0"
#132
1"
1!
#137
0"
#142
1"
#144
0!
#147
0"
#156
1"
1!
#161
0"
#166
1"
#168
0!
#171
0"
#180
1"
1!
#185
0"
#190
1"
#192
0!
#195
0"
#204
1"
1!
#209
0"
#214
1"
#216
0!
#219
0"
#228
1"
1!
#233
0"
#238
1"
#240
0!
#243
0"
#252
1"
1!
#257
0"
#262
1"
#264
0!
#267
0"
#276
1"
1!
#281
0"
#286
1"
#288
0!
#291
0"
#300
1"
1!
#305
0"
#310
1"
#312
0!
#315
0"
#324
1"
1!
#329
0"
#334
1"
#336
0!
#339
0"
#348
1"
1!
#353
0"
#358
1"
#360
0!
#363
0"
#372
1"
1!
#377
0"
#382
1"
#384
0!
#387
0"
#396
1"
1!
#401
0"
#406
1"
#408
0!
#411
0"
#420
1"
1!
#425
0"
#430
1"
#432
0!
#435
0"
#444
1"
1!
#449
0"
#454
1"
#456
0!
#459
0"
#468
1"
1!
#473
0"
#478
1"
#480
0!
#483
0"
#492
1"
1!
#497
0"
#502
1"
#504
0!
#507
0"
#516
1"
1!
#521
0"
#526
1"
#528
0!
#531
0"
#540
1"
1!
#545
0"
#550
1"
#552
0!
#555
0"
#564
1"
1!
#569
0"
#574
1"
#576
0!
#579
0"
#588
1"
1!
#593
0"
#598
1"
#600
0!
#603
0"
#612
1"
1!
#617
0"
#622
1"
#624
0!
#627
0"
#636
1"
1!
#641
0"
#646
1"
#648
0!
#651
0"
#660
1"
1!
#665
0"
#670
1"
#672
0!
#675
0"
#684
1"
1!
#689
0"
#694
1"
#696
0!
#699
0"
#708
1"
1!
#713
0"
#718
1"
#720
0!
#723
0"
#732
1"
1!
#737
0"
#742
1"
#744
0!
#747
0"
#756
1"
1!
#761
0"
#766
1"
#768
0!
#771
0"
#780
1"
1!
#785
0"
#790
1"
#792
0!
#795
0"
#804
1"
1!
#809
0"
#814
1"
#816
0!
#819
0"
#828
1"
1!
#833
0"
#838
1"
#840
0!
#843
0"
#852
1"
1!
#857
0"
#862
1"
#864
0!
#867
0"
#876
1"
1!
#881
0"
#886
1"
#888
0!
#891
0"
#900
1"
1!
#905
0"
#910
1"
#912
0!
#915
0"
#924
1"
1!
#929
0"
#934
1"
#936
0!
#939
0"
#948
1"
1!
#953
0"
#958
1"
#960
0!
#963
0"
#972
1"
1!
#977
0"
#982
1"
#984
0!
#987
0"
#996
1"
1!
#1001
0"
#1006
1"
#1008
0!
#1011
0"
#1020
1"
1!
#1025
0"
#1030
1"
#1032
0!
#1035
0"
#1044
1"
1!
#1049
0"
#1054
1"
#1056
0!
#1059
0"
#1068
1"
1!
#1073
0"
#1078
1"
#1080
0!
#1083
0"
#1092
1"
1!
#1097
0"
#1102
1"
#1104
0!
#1107
0"
#1116
1"
1!
#1121
0"
#1126
1"
#1128
0!
#1131
0"
#1140
1"
1!
#1145
0"
#1150
1"
#1152
0!
#1155
0"
#1164
1"
1!
#1169
0"
#1174
1"
#1176
0!
#1179
0"
#1188
1"
1!
#1193
0"
#1198
1"
#1200
0!
#1203
0"
#1212
1"
1!
#1217
0"
#1222
1"
#1224
0!
#1227
0"
#1236
1"
1!
#1241
0"
#1246
1"
#1248
0!
#1251
0"
#1260
1"
1!
#1265
0"
#1270
1"
#1272
0!
#1275
0"
#1284
1"
1!
#1289
0"
#1294
1"
#1296
0!
#1299
0"
#1308
1"
1!
#1313
0"
#1318
1"
#1320
0!
#1323
0"
#1332
1"
1!
#1337
0"
#1342
1"
#1344
0!
#1347
0"
#1356
1"
1!
#1361
0"
#1366
1"
#1368
0!
#1371
0"
#1380
1"
1!
#1385
0"
#1390
1"
#1392
0!
#1395
0"
#1404
1"
1!
#1409
0"
#1414
1"
#1416
0!
#1419
0"
#1428
1"
1!
#1433
0"
#1438
1"
#1440
0!
#1443
0"
#1452
1"
1!
#1457
0"
#1462
1"
#1464
0!
#1467
0"
#1476
1"
1!
#1481
0"
#1486
1"
#1488
0!
#1491
0"
#1500
1"
1!
#1505
0"
#1510
1"
#1512
0!
#1515
0"
#1524
1"
1!
#1529
0"
#1534
1"
#1536
0!
#1539
0"
#1548
1"
1!
#1553
0"
#1558
1"
#1560
0!
#1563
0"
#1572
1"
1!
#1577
0"
#1582
1"
#1584
0!
#1587
0"
#1596
1"
1!
#1601
0"
#1606
1"
#1608
0!
#1611
0"
#1620
1"
1!
#1625
0"
#1630
1"
#1632
0!
#1635
0"
