2012-2/TPs/ED_06/461605/ED06 Pedro Henrique Lima Pinheiro 451605/Exemplo0044.vcd
$date
	Thu Sep 27 13:16:28 2012
$end
$version
	Icarus Verilog
$end
$timescale
	1s
$end
$scope module Exemplo0044 $end
$var wire 1 ! clock $end
$upscope $end
$scope module Exemplo0044 $end
$var wire 1 " sinal $end
$upscope $end
$enddefinitions $end
#0
$dumpvars
0"
0!
$end
#4
1"
#8
0"
#12
1"
1!
#16
0"
#20
1"
#24
0"
0!
#28
1"
#32
0"
#36
1!
#40
1"
#44
0"
#48
1"
0!
